# 1 "main.c"
# 1 "<built-in>"
# 1 "<command-line>"
# 1 "/usr/include/stdc-predef.h" 1 3 4
# 1 "<command-line>" 2
# 1 "main.c"
# 1 "file101.h" 1
101
h s rai
# 2 "main.c" 2
# 1 "file102.h" 1
102
/

Do

/

==
# 3 "main.c" 2


A = 3.141
B = 3.141*2
